<?xml version="1.0" encoding="utf-8"?>
<!-- Generator: Adobe Illustrator 16.0.0, SVG Export Plug-In . SVG Version: 6.00 Build 0)  -->
<!DOCTYPE svg PUBLIC "-//W3C//DTD SVG 1.1//EN" "http://www.w3.org/Graphics/SVG/1.1/DTD/svg11.dtd">
<svg version="1.1" id="Layer_1" xmlns="http://www.w3.org/2000/svg" xmlns:xlink="http://www.w3.org/1999/xlink" x="0px" y="0px"
	 width="76.5px" height="375px" viewBox="0 0 76.5 375" enable-background="new 0 0 76.5 375" xml:space="preserve">
<g>
	<g>
		<path fill="#3E3E3E" d="M38.636,16c-9.726,0-17.611,8.057-17.611,17.993c0,1.244,0.123,2.456,0.357,3.627
			c1.644,8.2,17.254,25.03,17.254,25.03s15.613-16.83,17.254-25.03c0.236-1.171,0.356-2.383,0.356-3.627
			C56.247,24.057,48.363,16,38.636,16z M38.671,41.759c-4.364,0-7.902-3.615-7.902-8.074c0-4.461,3.538-8.075,7.902-8.075
			c4.363,0,7.904,3.614,7.904,8.075C46.575,38.144,43.035,41.759,38.671,41.759z"/>
	</g>
	<path fill="#3E3E3E" stroke="#C76D49" stroke-width="2" stroke-miterlimit="10" d="M35.292,33.853"/>
	<path fill="#3E3E3E" stroke="#C76D49" stroke-width="2" stroke-miterlimit="10" d="M41.816,33.853"/>
</g>
<g>
	<polygon fill="#3E3E3E" points="39.336,140.49 46.871,145.123 54.404,149.756 39.336,149.756 24.267,149.756 31.801,145.123 	"/>
	<rect x="20.708" y="150.767" fill="#3E3E3E" width="36.899" height="3.834"/>
	<rect x="20.708" y="183.496" fill="#3E3E3E" width="36.899" height="3.834"/>
	<path fill="#3E3E3E" d="M24.077,153.97v29.823h30.159V153.97H24.077z M37.221,155.316h4.382v6.403h-4.382V155.316z M32.167,161.719
		h-4.381v-6.403h4.381V161.719z M43.074,177.926v5.402H36.06v-5.402v-5.118c0-1.937,1.57-3.507,3.506-3.507
		c1.938,0,3.508,1.57,3.508,3.507V177.926z M50.786,161.719h-4.382v-6.403h4.382V161.719z"/>
</g>
<path fill="#3E3E3E" d="M14.132,118.481c6.063-13.045,12.017-25.853,18.193-39.141c3.263,6.995,6.317,13.542,9.562,20.493
	c2.032-4.329,3.891-8.283,5.926-12.618c4.885,10.488,9.641,20.697,14.558,31.256c-3.084,0-5.886,0.085-8.675-0.074
	c-0.53-0.031-1.223-0.946-1.471-1.595c-1.461-3.828-2.813-7.697-4.238-11.65c-1.885,2.877-1.936,3.585-0.603,6.482
	c0.99,2.152,1.96,4.312,3.103,6.833c-3.938,0-7.565,0.055-11.188-0.069c-0.449-0.016-1.045-0.913-1.27-1.515
	c-1.874-5.027-3.677-10.081-5.69-15.649c-1.476,4.056-2.771,7.665-4.104,11.26c-0.724,1.949-1.523,3.259-2.647,5.957"/>
<g>
	<g>
		<path fill="#3E3E3E" d="M25.722,215.637H21.45c-3.56,0-6.446,2.885-6.446,6.445v20.291c0,3.561,2.886,6.445,6.446,6.445h4.272
			V215.637z"/>
		<rect x="29.261" y="215.637" fill="#3E3E3E" width="20.19" height="33.182"/>
		<path fill="#3E3E3E" d="M56.542,215.637h-3.551v33.182h3.551c3.56,0,6.446-2.885,6.446-6.444v-20.291
			C62.988,218.521,60.102,215.637,56.542,215.637z"/>
	</g>
	<path fill="#3E3E3E" d="M52.333,210.173c-0.288-0.892-1.737-1.567-3.485-1.567h-0.054H29.579h-0.053
		c-1.748,0-3.198,0.678-3.486,1.567c0.021,0,0.042,0,0.062-0.001c-0.034,0.107-0.061,0.215-0.061,0.326l0.026,2.658
		c0,0.484,0.734,0.878,1.639,0.878c0.819,0,1.492-0.322,1.613-0.741c0.033,0,0.062,0.005,0.096,0.006
		c-0.035-0.105-0.054-0.213-0.054-0.324v-0.91c0-1.045,1.585-1.894,3.539-1.894h12.573c1.955,0,3.541,0.849,3.541,1.894v0.91
		c0,0.111-0.02,0.219-0.055,0.324c0.033-0.001,0.062-0.006,0.096-0.006c0.123,0.419,0.795,0.741,1.613,0.741
		c0.904,0,1.639-0.394,1.639-0.878l0.026-2.658c0-0.111-0.026-0.219-0.062-0.326C52.292,210.173,52.312,210.173,52.333,210.173z"/>
</g>
<path fill="#3E3E3E" d="M61.658,331.154H16.489l22.465,19.216L61.658,331.154z M38.945,353.842l-23.043-19.711v25.963H62v-25.767
	L38.945,353.842z"/>
<g>
	<g>
		<path fill-rule="evenodd" clip-rule="evenodd" fill="#3E3E3E" d="M38.651,277.85c-13.458-0.542-15.629,12.047-16.173,18.56
			c-0.543,6.512,5.318,6.077,5.318,6.077s13.025,0.108,20.404,0.108c7.381,0,6.296-6.946,6.296-6.946
			C53.193,276.656,38.651,277.85,38.651,277.85z M38.525,295.138c-4.216,0-7.635-3.095-7.635-6.912s3.419-6.914,7.635-6.914
			c4.217,0,7.637,3.097,7.637,6.914S42.742,295.138,38.525,295.138z M24.233,284.146H13.449c0,0-0.032,4.014,6.285,4.009
			C19.734,288.155,23.223,288.285,24.233,284.146z M38.326,271.338c0,0-24.215-0.131-24.974,11.374l11.731,0.011
			c0,0,4.016-6.5,13.025-6.5c0,0,9.332-0.219,13.892,6.619h11.286C63.286,282.842,65.892,271.771,38.326,271.338z M57.2,288.328
			c6.19-0.103,6.086-4.334,6.086-4.334H52.97C52.97,288.431,57.2,288.328,57.2,288.328z"/>
	</g>
</g>
</svg>
