<?xml version="1.0" encoding="utf-8"?>
<!-- Generator: Adobe Illustrator 16.0.0, SVG Export Plug-In . SVG Version: 6.00 Build 0)  -->
<!DOCTYPE svg PUBLIC "-//W3C//DTD SVG 1.1//EN" "http://www.w3.org/Graphics/SVG/1.1/DTD/svg11.dtd">
<svg version="1.1" id="Layer_1" xmlns="http://www.w3.org/2000/svg" xmlns:xlink="http://www.w3.org/1999/xlink" x="0px" y="0px"
	 width="38.333px" height="29.562px" viewBox="0 0 38.333 29.562" style="enable-background:new 0 0 38.333 29.562;"
	 xml:space="preserve">
<style type="text/css">
<![CDATA[
	.st0{fill:#E8E6D4;}
	.st1{fill:#C76D49;}
	.st2{fill:none;stroke:#C76D49;stroke-width:2;stroke-miterlimit:10;}
	.st3{fill:#3E3E3E;}
]]>
</style>
<g>
	
		<image style="overflow:visible;" width="82" height="76" xlink:href="data:image/png;base64,iVBORw0KGgoAAAANSUhEUgAAAFIAAABMCAYAAAD+8OBwAAAACXBIWXMAAAsSAAALEgHS3X78AAAA
GXRFWHRTb2Z0d2FyZQBBZG9iZSBJbWFnZVJlYWR5ccllPAAAAZhJREFUeNrsme1qxCAQRTXZj/T9
n7bZTWwXFKaXMRRaoovnwMWw+0cOjo5JCAAAAAAAAAAAAAAAAAAAAAAApxLfdF4Jkb+bi/ecKiIT
In/OwY7xYG7JJDjjkCJV3iRjrEjcZWwuM3Yg0cp7ZTbPk5T2brKZ5/JfM5mxg5VY5JVccuaKyJfA
Z85msrdcmS1F2lVY5F1zbiIziMT1O4+cInV3Sn0IkSrxlnPPsTKDSPzMWXM8macyd7Qai8QPk8WR
6u2Zdo9sQkuRdn+8ymosEpf8+1Uk7pWDp0lZ9yDSHjCltBcpb0/iZg6bp3OCn870RlfY2PNEW69I
bX8uJqX1Kfvf05zUqzm5bSs0bGlPleiBUiTqaf2Q0h5KZDi4W0e5Dm6yArX1eUhjnkbsI21Z24b8
ZhpzryG35a2lvY8qUvtJvSJq37g5V0TvVjOMyKO9cjZjFJHJrLxNeslmEnt5jRb/6TVaM4m99Ga1
F7pHIkOov+AdVqQntDY/7xMDnxr+MK8UAAAAAAAAAAAAAAAAAAAAAADG5kuAAQC4zrVbbQAk9wAA
AABJRU5ErkJggg==" transform="matrix(1 0 0 1 -80.333 7)">
	</image>
</g>
<g>
	<circle class="st0" cx="-38.917" cy="18.25" r="9.25"/>
	<g>
		<g>
			<path class="st1" d="M-39.167,1.906c-9.143,0-16.554,7.573-16.554,16.913c0,1.169,0.115,2.309,0.335,3.409
				c1.546,7.708,16.219,23.528,16.219,23.528s14.676-15.82,16.219-23.528c0.223-1.101,0.336-2.24,0.336-3.409
				C-22.612,9.479-30.022,1.906-39.167,1.906z M-39.133,26.119c-4.102,0-7.428-3.398-7.428-7.59c0-4.193,3.326-7.591,7.428-7.591
				c4.101,0,7.429,3.397,7.429,7.591C-31.704,22.721-35.032,26.119-39.133,26.119z"/>
		</g>
		<path class="st2" d="M-42.309,18.688"/>
		<path class="st2" d="M-36.177,18.688"/>
	</g>
</g>
<g>
	<line class="st2" x1="-39.333" y1="15.717" x2="-39.333" y2="21.408"/>
	<line class="st2" x1="-36.62" y1="18.561" x2="-42.187" y2="18.561"/>
</g>
<rect x="1.186" y="1.357" class="st3" width="35.962" height="6.484"/>
<rect x="1.186" y="11.42" class="st3" width="35.962" height="6.485"/>
<rect x="1.186" y="21.482" class="st3" width="35.962" height="6.485"/>
</svg>
